Final
…
## `summarise()` regrouping output by 'SUBID' (override with `.groups` argument)

# Check individuals accuracy
acc_ind<-ds %>% 
  group_by(SUBID,CUETYPE) %>% 
    summarise(ACC=mean(ACC));print(acc_ind) 

## `summarise()` regrouping output by 'SUBID' (override with `.groups` argument)

## # A tibble: 56 x 3
## # Groups:   SUBID [28]
##    SUBID CUETYPE   ACC
##    <int> <chr>   <dbl>
##  1   200 invalid 0.272
##  2   200 valid   0.871
##  3   201 invalid 0.505
##  4   201 valid   0.719
##  5   202 invalid 0.643
##  6   202 valid   0.646
##  7   203 invalid 0.540
##  8   203 valid   0.573
##  9   204 invalid 0.238
## 10   204 valid   0.809
## #  with 46 more rows
…
# Correlation of accuracy between valid and invalid (Data vis plot 2)
#Add referece line data 
theme_set(theme_bw(base_size=18))#32/28
acc_ind<-ds%>%group_by(SUBID,CUETYPE)%>%summarise(ACC=mean(ACC))%>%spread(CUETYPE,ACC);print(acc_ind) 

## `summarise()` regrouping output by 'SUBID' (override with `.groups` argument)

## # A tibble: 28 x 3
## # Groups:   SUBID [28]
##    SUBID invalid valid
##    <int>   <dbl> <dbl>
##  1   200   0.272 0.871
##  2   201   0.505 0.719
##  3   202   0.643 0.646
##  4   203   0.540 0.573
##  5   204   0.238 0.809
##  6   205   0.489 0.545
##  7   206   0.573 0.579
##  8   209   0.446 0.651
##  9   210   0.596 0.694
## 10   211   0.443 0.768
## #  with 18 more rows

m1 =summary(lm(valid~invalid,acc_ind));
r1=paste('R^2=',round((m1$r.squared),digits=1));
r2=paste('R=',round((sqrt(m1$r.squared)),digits=1))

acc_ind

## # A tibble: 28 x 3
## # Groups:   SUBID [28]
##    SUBID invalid valid
##    <int>   <dbl> <dbl>
##  1   200   0.272 0.871
##  2   201   0.505 0.719
##  3   202   0.643 0.646
##  4   203   0.540 0.573
##  5   204   0.238 0.809
##  6   205   0.489 0.545
##  7   206   0.573 0.579
##  8   209   0.446 0.651
##  9   210   0.596 0.694
## 10   211   0.443 0.768
## #  with 18 more rows
…
